{
  "types:integer": [
    {
      "name": "i8",
      "type": "int8_t",
      "defval": "SV_DEFAULT_SIGNED_VAL"
    },
    {
      "name": "u8",
      "type": "uint8_t",
      "defval": "SV_DEFAULT_UNSIGNED_VAL"
    },
    {
      "name": "i16",
      "type": "int16_t",
      "defval": "SV_DEFAULT_SIGNED_VAL"
    },
    {
      "name": "u16",
      "type": "uint16_t",
      "defval": "SV_DEFAULT_UNSIGNED_VAL"
    },
    {
      "name": "i32",
      "type": "int32_t",
      "defval": "SV_DEFAULT_SIGNED_VAL"
    },
    {
      "name": "u32",
      "type": "uint32_t",
      "defval": "SV_DEFAULT_UNSIGNED_VAL"
    },
    {
      "name": "i64",
      "type": "int64_t",
      "defval": "SV_DEFAULT_SIGNED_VAL"
    },
    {
      "name": "u64",
      "type": "uint64_t",
      "defval": "SV_DEFAULT_UNSIGNED_VAL"
    }
  ],
  "types:fp": [
    {
      "name": "f",
      "type": "float",
      "defval": "SV_DEFAULT_FLOAT_VAL"
    },
    {
      "name": "d",
      "type": "double",
      "defval": "SV_DEFAULT_DOUBLE_VAL"
    }
  ],
  "types:pointer": [
    {
      "name": "ptr",
      "type": "void*",
      "defval": "NULL"
    }
  ]
}
